{
    "type": "minecraft:smithing",
    "group": "misc",
    "base": {
        "tag": "sophocraft:hammer"
    },
    "addition": {
        "item": "minecraft:flint"
    },
    "result": {
        "item": "sophocraft:crushed_flint"
    }
}